<svg width="703" height="201" viewBox="0 0 703 201" fill="none" xmlns="http://www.w3.org/2000/svg">
<path d="M22.2213 177.08C16.9413 177.74 16.0613 176.86 16.0613 182.8C16.0613 186.32 16.2813 189.62 16.5013 192.92C17.3813 193.58 18.2613 193.58 19.3613 193.58C23.3212 193.58 27.0613 192.48 31.0213 192.04C39.3813 191.38 47.7413 191.16 56.3213 191.16C58.0813 191.16 61.6013 190.28 61.6013 187.86C61.6013 186.76 60.2813 178.84 59.6213 177.96C58.3013 175.76 49.2812 175.76 46.6413 175.76C38.5013 175.76 30.3613 176.2 22.2213 177.08ZM35.4213 8.12C32.5613 7.23999 29.7013 6.79999 26.8413 6.79999C3.30125 6.79999 2.64125 41.56 2.64125 58.28C2.64125 65.76 3.08125 73.24 3.08125 80.72C3.08125 103.82 0.66125 163 35.2013 163C69.9613 163 70.8413 117.02 70.8413 92.16C70.8413 62.9 70.1813 17.8 35.4213 8.12ZM51.4813 118.34C49.5013 128.24 50.3813 145.4 36.0813 145.4C18.4813 145.4 17.6013 108.44 17.6013 96.34C17.6013 81.38 19.1413 66.64 20.0213 51.68C20.4613 44.2 19.8013 32.32 26.8413 27.48C28.8213 26.16 31.0213 25.06 33.4413 25.06C53.2413 25.06 53.0213 83.36 53.0213 97C53.0213 104.04 53.0213 111.3 51.4813 118.34ZM112.813 159.26C111.493 151.12 109.293 151.78 105.113 151.78C102.033 151.78 98.2931 149.8 96.5331 155.3C96.0931 156.18 96.0931 157.06 96.0931 158.16C95.8731 164.32 95.6531 172.68 95.4331 178.4C95.2131 183.02 94.3331 188.52 96.3131 192.04C97.8531 195.34 98.2931 194.68 100.713 194.46C104.233 193.58 105.333 193.14 109.073 192.7C110.613 192.26 111.273 190.5 111.493 186.98C111.933 178.84 114.133 167.4 112.813 159.26ZM217.494 108.88C229.594 75.66 241.914 42.66 254.234 9.43999L253.794 8.33999C249.174 5.69999 244.774 2.83998 240.374 0.199993C230.034 28.36 220.354 56.74 209.794 84.9C209.574 70.16 209.134 55.42 209.134 40.9C209.134 29.68 209.574 18.68 209.574 7.67999C209.574 6.57999 209.794 3.94 209.134 3.06C207.594 1.07999 196.374 1.29999 193.514 1.29999C194.174 54.98 194.394 108.66 194.394 162.12C194.394 169.82 193.514 177.3 193.514 184.78C193.514 188.08 193.954 191.38 194.174 194.68C194.614 199.08 193.954 200.18 199.454 200.18C202.534 200.18 211.114 199.74 212.874 197.1C212.434 196 213.094 193.14 213.094 191.6C213.094 186.98 211.994 182.58 211.334 177.96C210.234 168.94 210.234 159.48 210.234 150.02C210.234 143.2 210.454 136.38 210.234 129.34L247.194 198.64L248.294 198.86C252.694 196.22 257.534 193.8 262.154 191.38C247.194 163.88 231.794 136.82 217.494 108.88ZM333.449 9.87999C329.709 11.86 330.369 15.6 330.369 19.12V20.22C329.709 34.74 324.649 48.6 320.689 62.46C316.289 77.2 312.549 92.38 307.269 106.9C305.069 113.72 303.089 120.54 301.329 127.58C300.229 131.54 298.909 141.66 296.489 144.52C296.489 104.48 297.809 64.44 297.809 24.4C297.809 20.88 299.129 17.36 299.129 13.62C299.129 11.86 298.029 9.43999 296.049 9.43999C294.509 9.43999 292.969 9.87999 291.429 10.1C283.289 11.2 279.549 9.43999 279.549 19.78C279.549 24.84 280.649 29.9 280.649 34.96V126.92C280.649 142.54 281.969 158.16 281.969 173.78C281.969 178.4 281.309 183.02 281.309 187.64C281.309 188.74 281.309 190.28 282.189 191.38C283.069 192.48 293.849 193.14 295.829 193.14C296.269 193.14 296.929 193.14 297.369 193.14C301.989 190.5 301.989 180.82 303.089 176.2C308.369 153.54 314.969 131.32 321.349 108.88C323.549 101.18 326.189 93.7 328.169 86C329.049 82.04 329.929 74.34 332.349 71.04C332.569 72.14 333.009 73.46 333.009 74.56C333.009 80.5 331.689 86.44 331.029 92.16C329.049 116.8 330.369 141.44 329.709 166.08C329.489 172.02 328.609 177.96 328.609 183.9C328.609 190.5 333.669 189.4 338.509 189.4C342.029 189.4 346.869 188.96 346.869 184.34C346.869 181.48 346.429 178.62 346.429 175.54C346.429 144.74 346.649 113.94 346.649 83.14C346.649 69.06 347.089 54.98 347.089 40.68C347.089 31.44 348.189 21.98 348.189 12.74C348.189 10.76 348.189 8.77999 347.309 7.02C342.689 7.89999 337.849 8.12 333.449 9.87999ZM427.944 47.28V45.08C427.944 38.7 427.724 32.32 427.724 25.94C427.504 19.56 428.384 19.34 422.224 16.92C420.904 16.48 419.364 16.04 417.824 16.04C411.664 16.04 412.764 25.06 412.764 29.24C412.764 50.8 411.444 72.14 411.444 93.7C411.444 97.22 412.104 100.74 412.104 104.26C412.104 109.1 411.444 110.2 406.604 110.2C402.864 110.2 399.344 109.76 395.824 109.76C387.904 109.76 392.964 33.2 392.964 20.22C392.964 15.38 391.864 14.28 387.244 14.28C385.484 14.28 378.664 14.5 377.124 15.38C373.384 18.02 373.384 28.58 373.384 32.54C373.384 41.78 374.704 50.8 374.924 60.04C375.144 79.84 375.364 99.64 375.584 119.44C375.584 135.5 377.344 151.34 377.344 167.4C377.344 172.24 375.804 176.86 375.804 181.7C375.804 186.76 379.544 185.88 383.504 185.88C390.324 185.88 392.744 187.42 392.744 179.72C392.744 175.54 392.084 171.14 391.864 166.74C391.864 155.74 390.764 144.3 390.764 133.3C390.764 123.18 393.624 122.08 402.204 122.08C414.744 122.08 412.544 126.04 412.544 136.82C412.544 148.92 411.004 161.9 411.664 174.88C411.664 176.42 411.224 184.56 413.644 184.56C417.824 184.56 422.444 183.24 426.624 182.58C427.504 181.48 427.724 179.94 427.724 178.62C427.724 173.12 427.064 167.62 427.064 162.12C427.064 123.84 427.724 85.56 427.944 47.28ZM514.758 116.58C514.978 113.5 515.198 110.64 515.198 107.56C515.198 106.24 515.198 104.92 514.978 103.6C513.438 81.6 512.338 59.6 511.238 37.6L511.018 34.96C511.018 30.12 511.898 25.28 511.898 20.44C511.898 11.2 505.078 10.98 497.378 10.98C492.978 10.98 492.318 14.28 492.318 18.02C492.318 45.96 496.938 73.68 496.938 101.4C496.938 109.76 491.438 126.04 481.098 126.04C465.038 126.04 463.938 79.62 463.938 68.4C463.938 53.66 464.818 38.92 464.818 24.18C464.818 14.72 466.138 11.42 455.358 11.42C451.618 11.42 449.418 11.2 448.538 15.6C448.318 17.14 448.758 19.12 448.758 20.66C448.758 32.98 448.318 45.3 448.318 57.62C448.318 66.42 448.538 75.22 449.198 84.02C450.958 104.26 452.278 146.28 480.438 146.28C488.358 146.28 494.958 140.78 499.138 134.4C499.798 146.5 500.018 158.38 500.018 170.48C500.018 174 499.358 177.3 499.358 180.82C499.358 185.22 500.458 189.18 505.738 189.18C510.138 189.18 517.838 185.66 517.838 180.38C517.838 159.26 514.318 137.92 514.758 116.58ZM595.988 9.87999C592.248 11.86 592.908 15.6 592.908 19.12V20.22C592.248 34.74 587.188 48.6 583.228 62.46C578.828 77.2 575.088 92.38 569.808 106.9C567.608 113.72 565.628 120.54 563.868 127.58C562.768 131.54 561.448 141.66 559.028 144.52C559.028 104.48 560.348 64.44 560.348 24.4C560.348 20.88 561.668 17.36 561.668 13.62C561.668 11.86 560.568 9.43999 558.588 9.43999C557.048 9.43999 555.508 9.87999 553.968 10.1C545.828 11.2 542.088 9.43999 542.088 19.78C542.088 24.84 543.188 29.9 543.188 34.96V126.92C543.188 142.54 544.508 158.16 544.508 173.78C544.508 178.4 543.848 183.02 543.848 187.64C543.848 188.74 543.848 190.28 544.728 191.38C545.608 192.48 556.388 193.14 558.368 193.14C558.808 193.14 559.468 193.14 559.908 193.14C564.528 190.5 564.528 180.82 565.628 176.2C570.908 153.54 577.508 131.32 583.888 108.88C586.088 101.18 588.728 93.7 590.708 86C591.588 82.04 592.468 74.34 594.888 71.04C595.108 72.14 595.548 73.46 595.548 74.56C595.548 80.5 594.228 86.44 593.568 92.16C591.588 116.8 592.908 141.44 592.248 166.08C592.028 172.02 591.148 177.96 591.148 183.9C591.148 190.5 596.208 189.4 601.048 189.4C604.568 189.4 609.408 188.96 609.408 184.34C609.408 181.48 608.968 178.62 608.968 175.54C608.968 144.74 609.188 113.94 609.188 83.14C609.188 69.06 609.628 54.98 609.628 40.68C609.628 31.44 610.728 21.98 610.728 12.74C610.728 10.76 610.728 8.77999 609.848 7.02C605.228 7.89999 600.388 8.12 595.988 9.87999ZM657.923 108.88C670.023 75.66 682.343 42.66 694.663 9.43999L694.223 8.33999C689.603 5.69999 685.203 2.83998 680.803 0.199993C670.463 28.36 660.783 56.74 650.223 84.9C650.003 70.16 649.563 55.42 649.563 40.9C649.563 29.68 650.003 18.68 650.003 7.67999C650.003 6.57999 650.223 3.94 649.563 3.06C648.023 1.07999 636.803 1.29999 633.943 1.29999C634.603 54.98 634.823 108.66 634.823 162.12C634.823 169.82 633.943 177.3 633.943 184.78C633.943 188.08 634.383 191.38 634.603 194.68C635.043 199.08 634.383 200.18 639.883 200.18C642.963 200.18 651.543 199.74 653.303 197.1C652.863 196 653.523 193.14 653.523 191.6C653.523 186.98 652.423 182.58 651.763 177.96C650.663 168.94 650.663 159.48 650.663 150.02C650.663 143.2 650.883 136.38 650.663 129.34L687.623 198.64L688.723 198.86C693.123 196.22 697.963 193.8 702.583 191.38C687.623 163.88 672.223 136.82 657.923 108.88Z" fill="white"/>
</svg>
